 [

{
"name": "ZTE Blade A75 4",
"price": 7500,
"img": "/img/phone1.webp",
"art": 457778,
"colour": "black"
},
{
"name": "ZTE Blade A85 3",
"price": 9500,
"img": "/img/phone2.webp",
"art": 4578,
"colour": "red"
},
{
"name": "ZTE Blade C75 4",
"price": 7900,
"img": "/img/phone3.webp",
"art": 78578,
"colour": "black"
},
{
"name": "ZTE Blade D78",
"price": 9999,
"img": "/img/phone4.webp",
"art": 45878,
"colour": "white"
},
{
"name": "ZTE Ufo A77 4",
"price": 8700,
"img": "/img/phone5.webp",
"art": 147447,
"colour": "grey"
},
{
"name": "ZTE Blade F747 4",
"price": 12500,
"img": "/img/phone6.webp",
"art": 896587,
"colour": "black"
},
{
"name": "ATE Blade A15 4",
"price": 11000,
"img": "/img/phone7.webp",
"art": 8745,
"colour": "black"
},
{
"name": "MDB Blade A35 4",
"price": 15000,
"img": "/img/phone8.webp",
"art": 321654,
"colour": "red"
},
{
"name": "UKO Blade S45",
"price": 14500,
"img": "/img/phone9.webp",
"art": 963369,
"colour": "black"
},
{
"name": "SVS Blade S22 4",
"price": 9500,
"img": "/img/phone10.webp",
"art": 987456,
"colour": "black"
}

]

